[gd_scene load_steps=7 format=3 uid="uid://g4gnrguxh5vw"]

[ext_resource type="PackedScene" uid="uid://fyeduu0hdaav" path="res://assets/3d/level/red_key.blend" id="1_8y8q2"]
[ext_resource type="Script" path="res://level/objects/interactables/common/interactable.gd" id="2_l5cpt"]
[ext_resource type="Script" path="res://level/objects/interactables/common/item.gd" id="3_qt1v6"]
[ext_resource type="Texture2D" uid="uid://2asdo34i3x1f" path="res://assets/ui/icons/items/red_key.png" id="4_dyskn"]

[sub_resource type="BoxShape3D" id="BoxShape3D_e87ty"]
size = Vector3(0.0686035, 0.16626, 0.0263672)

[sub_resource type="BoxShape3D" id="BoxShape3D_57wcf"]
size = Vector3(2, 1, 2)

[node name="RedKey" instance=ExtResource("1_8y8q2")]

[node name="Interactable" type="Node" parent="." index="1" node_paths=PackedStringArray("clickable_area3D", "interactable_area3D")]
script = ExtResource("2_l5cpt")
clickable_area3D = NodePath("../ClickableArea3D")
interactable_area3D = NodePath("../InteractableArea3D")
one_shot = true

[node name="ClickableArea3D" type="Area3D" parent="." index="2"]
transform = Transform3D(1, 0, 2.50556e-22, 0, 1, 0, 2.50555e-22, 0, 1, 0, 0, 0)

[node name="CollisionShape3D" type="CollisionShape3D" parent="ClickableArea3D" index="0"]
transform = Transform3D(1, 0, -2.50555e-22, 0, 1, 0, 2.50555e-22, 0, 1, 0, 0.0386, 0)
shape = SubResource("BoxShape3D_e87ty")

[node name="InteractableArea3D" type="Area3D" parent="." index="3"]

[node name="CollisionShape3D" type="CollisionShape3D" parent="InteractableArea3D" index="0"]
transform = Transform3D(1, 0, 2.50556e-22, 0, 1, 0, 2.50555e-22, 0, 1, 0, 0, 1)
shape = SubResource("BoxShape3D_57wcf")

[node name="Item" type="Node" parent="." index="4" node_paths=PackedStringArray("mesh3D")]
script = ExtResource("3_qt1v6")
type = 3
mesh3D = NodePath("../RedKey")
item_texture = ExtResource("4_dyskn")
