[gd_scene load_steps=2 format=3 uid="uid://ba6624fkahbkm"]

[ext_resource type="PackedScene" uid="uid://dr4gk1ojo77pa" path="res://assets/3d/level/painting_chicken.blend" id="1_g0quc"]

[node name="ChickenPainting" instance=ExtResource("1_g0quc")]
