[gd_scene load_steps=2 format=3 uid="uid://1u52hfy7jewx"]

[ext_resource type="PackedScene" uid="uid://bngskdq3eroib" path="res://assets/3d/level/painting_forest.blend" id="1_ygd2x"]

[node name="ForestPainting" instance=ExtResource("1_ygd2x")]
