[gd_scene load_steps=2 format=3 uid="uid://qukes3ocot0i"]

[ext_resource type="PackedScene" uid="uid://4umrkv5gxd1p" path="res://assets/3d/level/bookshelf.blend" id="1_s6whb"]

[node name="Bookshelf" instance=ExtResource("1_s6whb")]
