[gd_scene load_steps=2 format=3 uid="uid://bwsso6a7tun84"]

[ext_resource type="PackedScene" uid="uid://x5limlrmh0hd" path="res://assets/3d/level/lamp.blend" id="1_6dnok"]

[node name="Lamp" instance=ExtResource("1_6dnok")]

[node name="Lamp" parent="." index="0"]
cast_shadow = 0

[node name="OmniLight3D" type="OmniLight3D" parent="." index="1"]
transform = Transform3D(1, 0, 0, 0, 1, 0, 0, 0, 1, 0, -0.272682, 0)
light_color = Color(1, 0.823529, 0.6, 1)
shadow_enabled = true
omni_range = 2.0
omni_attenuation = 3.0
